Cleaning and exploring NCBI data with the `bioseq` package • bioseq
…
As explained in the introduction, we want to analyze the data in a dataframe as it present several advantages. The bioseq package has been designed to work smoothly with tibbles, an extension of the standard dataframe. Below, we use the as_tibble function to turn the DNA vector into a tibble with two columns (one for the names and one for the sequences). We will also clean the names and split them into two columns. Finally we create an extra column with the length (number of characters) of each sequence.

fra_data <- tibble(label = names(fra_data), sequence = fra_data)

fra_data <- fra_data %>% 
  mutate(genbank_id = str_extract(label, "([^\\s]+)"),
         taxa = str_extract(label, "(?<= ).*")) %>% 
  select(genbank_id, taxa, sequence)

fra_data <- fra_data %>% 
  mutate(n_base = seq_nchar(sequence))

fra_data
#> # A tibble: 41 × 4
#>    genbank_id taxa                   sequence                             n_base
#>    <chr>      <chr>                  <DNA>                                 <int>
#>  1 MK576039.1 Fragilaria MK576039.1  TTCATCGCTTATGAATGTGATTTATTTGAAGAAGG…    635
#>  2 MK672908.1 Fragilaria joachimii   GCTTTCATCGCTTACGAATGTGATTTATTTGAAGA…   1167
#>  3 MK672907.1 Fragilaria heatherae   ATGTCTCAATCTGTATCAGAACGGACTCGAATCAA…   1446
#>  4 MK672906.1 Fragilaria agnesiae    ATGTCTCAATCTGTATCAGAACGGACTCGAATCAA…   1446
#>  5 KT072939.1 Fragilaria rumpens     TTAGCATTATTCCGTATTACTCCACAACCAGGTGT…    804
#>  6 KT072928.1 Fragilaria capucina    TTAGCATTATTCCGTATTACTCCACAACCAGGTGT…    804
#>  7 KT072903.1 Fragilaria crotonensis TTAGCATTATTCCGTATTACTCCACAACCAGGTGT…    804
#>  8 MF092945.1 Fragilaria MF092945.1  AGTGACCGTTACGAATCTGGTGTAATCCCTTACGC…   1323
#>  9 MF092943.1 Fragilaria MF092943.1  AGTGACCGTTACGAATCTGGTGTAATCCCTTACGC…   1323
#> 10 JQ003574.1 Synedra radians        AAAAANTATGGGCGTGTAGTATACGAAGGTTTAAA…    450
#> # … with 31 more rows
#> # ℹ Use `print(n = ...)` to see more rows
…
We can see that the three ambiguous sequences used as forward primers actually represent eight different sequences. Fortunately, the functions of bioseq can automatically recognize ambiguous nucleotides and interpret them as such. This is why it is always recommended to construct DNA/RNA/AA vectors instead of simple character vector when it is possible.

Now we crop the sequences using the forward and reverse primers as delimiters. We can expect that the returned sequences will be aligned because they correspond to a very specific region with a fixed length.

fra_data <- fra_data %>% 
  mutate(barcode = seq_crop_pattern(sequence,
                                    pattern_in = list(FWD),
                                    pattern_out = list(REV)))

fra_data
#> # A tibble: 41 × 5
#>    genbank_id taxa                   sequence                     n_base barcode
#>    <chr>      <chr>                  <DNA>                         <int> <DNA>  
#>  1 MK576039.1 Fragilaria MK576039.1  TTCATCGCTTATGAATGTGATTTATTT…    635 NA     
#>  2 MK672908.1 Fragilaria joachimii   GCTTTCATCGCTTACGAATGTGATTTA…   1167 AGGTGA…
#>  3 MK672907.1 Fragilaria heatherae   ATGTCTCAATCTGTATCAGAACGGACT…   1446 AGGTGA…
#>  4 MK672906.1 Fragilaria agnesiae    ATGTCTCAATCTGTATCAGAACGGACT…   1446 AGGTGA…
#>  5 KT072939.1 Fragilaria rumpens     TTAGCATTATTCCGTATTACTCCACAA…    804 NA     
#>  6 KT072928.1 Fragilaria capucina    TTAGCATTATTCCGTATTACTCCACAA…    804 NA     
#>  7 KT072903.1 Fragilaria crotonensis TTAGCATTATTCCGTATTACTCCACAA…    804 NA     
#>  8 MF092945.1 Fragilaria MF092945.1  AGTGACCGTTACGAATCTGGTGTAATC…   1323 AGGTGA…
#>  9 MF092943.1 Fragilaria MF092943.1  AGTGACCGTTACGAATCTGGTGTAATC…   1323 AGGTGA…
#> 10 JQ003574.1 Synedra radians        AAAAANTATGGGCGTGTAGTATACGAA…    450 NA     
#> # … with 31 more rows
#> # ℹ Use `print(n = ...)` to see more rows

As expected, the barcode sequences seem to be aligned. We can also see that this operation has produced several NAs which correspond to sequences where the primers were not detected, probably because the barcode region was not included in the sequence. We could simply exclude the NA values, but it is safer to filter only the sequences whose length match exactly the expected length of the barcode (i.e. 312 bp).

fra_data <- fra_data %>% 
  filter(seq_nchar(barcode) == 312)

fra_data
#> # A tibble: 23 × 5
#>    genbank_id taxa                  sequence                      n_base barcode
#>    <chr>      <chr>                 <DNA>                          <int> <DNA>  
#>  1 MK672908.1 Fragilaria joachimii  GCTTTCATCGCTTACGAATGTGATTTAT…   1167 AGGTGA…
#>  2 MK672907.1 Fragilaria heatherae  ATGTCTCAATCTGTATCAGAACGGACTC…   1446 AGGTGA…
#>  3 MK672906.1 Fragilaria agnesiae   ATGTCTCAATCTGTATCAGAACGGACTC…   1446 AGGTGA…
#>  4 MF092945.1 Fragilaria MF092945.1 AGTGACCGTTACGAATCTGGTGTAATCC…   1323 AGGTGA…
#>  5 MF092943.1 Fragilaria MF092943.1 AGTGACCGTTACGAATCTGGTGTAATCC…   1323 AGGTGA…
#>  6 EU090046.1 Fragilaria EU090046.1 TGACCGTTACGAATCTGGTGTAATCCCT…   1330 AGGTGA…
#>  7 EU090045.1 Fragilaria EU090045.1 TGACCGTTACGAATCTGGTGTAATCCCT…   1330 AGGTGA…
#>  8 EU090044.1 Fragilaria EU090044.1 TGACCGTTACGAATCTGGTGTAATCCCT…   1330 AGGTGA…
#>  9 EU090043.1 Fragilaria EU090043.1 TGACCGTTACGAATCTGGTGTAATCCCT…   1328 AGGTGA…
#> 10 EU090042.1 Fragilaria EU090042.1 ACCGTTACGAATCTGGTGTAATCCCTTA…   1329 AGGTGA…
#> # … with 13 more rows
#> # ℹ Use `print(n = ...)` to see more rows
…
